^C:\USERS\ABRIS\ONEDRIVE\DESKTOP\REPOS\COMPUTER-GRAQPHICS-BEADANDO\001.BEAD\02_INDICES\DEBUG\MAIN.OBJ|C:\USERS\ABRIS\ONEDRIVE\DESKTOP\REPOS\COMPUTER-GRAQPHICS-BEADANDO\001.BEAD\02_INDICES\DEBUG\MYAPP.OBJ
C:\USERS\ABRIS\ONEDRIVE\DESKTOP\REPOS\COMPUTER-GRAQPHICS-BEADANDO\001.BEAD\DEBUG\BEADANDO.EXE
C:\USERS\ABRIS\ONEDRIVE\DESKTOP\REPOS\COMPUTER-GRAQPHICS-BEADANDO\001.BEAD\DEBUG\BEADANDO.ILK
C:\USERS\ABRIS\ONEDRIVE\DESKTOP\REPOS\COMPUTER-GRAQPHICS-BEADANDO\001.BEAD\DEBUG\BEADANDO.PDB
