^C:\USERS\ABRIS\ONEDRIVE\DESKTOP\REPOS\COMPUTER-GRAQPHICS-BEADANDO\02_INDICES\02_INDICES\MAIN.CPP|C:\USERS\ABRIS\ONEDRIVE\DESKTOP\REPOS\COMPUTER-GRAQPHICS-BEADANDO\02_INDICES\02_INDICES\MYAPP.CPP
C:\USERS\ABRIS\ONEDRIVE\DESKTOP\REPOS\COMPUTER-GRAQPHICS-BEADANDO\02_INDICES\02_INDICES\DEBUG\VC142.PDB
C:\USERS\ABRIS\ONEDRIVE\DESKTOP\REPOS\COMPUTER-GRAQPHICS-BEADANDO\02_INDICES\02_INDICES\DEBUG\VC142.IDB
C:\USERS\ABRIS\ONEDRIVE\DESKTOP\REPOS\COMPUTER-GRAQPHICS-BEADANDO\02_INDICES\02_INDICES\DEBUG\MYAPP.OBJ
C:\USERS\ABRIS\ONEDRIVE\DESKTOP\REPOS\COMPUTER-GRAQPHICS-BEADANDO\02_INDICES\02_INDICES\DEBUG\MAIN.OBJ
^C:\USERS\ABRIS\ONEDRIVE\DESKTOP\REPOS\COMPUTER-GRAQPHICS-BEADANDO\02_INDICES\02_INDICES\MAIN.CPP
C:\USERS\ABRIS\ONEDRIVE\DESKTOP\REPOS\COMPUTER-GRAQPHICS-BEADANDO\02_INDICES\02_INDICES\DEBUG\VC142.PDB
^C:\USERS\ABRIS\ONEDRIVE\DESKTOP\REPOS\COMPUTER-GRAQPHICS-BEADANDO\02_INDICES\02_INDICES\MYAPP.CPP
C:\USERS\ABRIS\ONEDRIVE\DESKTOP\REPOS\COMPUTER-GRAQPHICS-BEADANDO\02_INDICES\02_INDICES\DEBUG\VC142.PDB
C:\USERS\ABRIS\ONEDRIVE\DESKTOP\REPOS\COMPUTER-GRAQPHICS-BEADANDO\02_INDICES\02_INDICES\DEBUG\VC142.IDB
C:\USERS\ABRIS\ONEDRIVE\DESKTOP\REPOS\COMPUTER-GRAQPHICS-BEADANDO\02_INDICES\02_INDICES\DEBUG\MYAPP.OBJ
