^C:\USERS\ABRIS\ONEDRIVE\DESKTOP\REPOS\COMPUTER-GRAQPHICS-BEADANDO\02_INDICES\02_INDICES\DEBUG\MAIN.OBJ|C:\USERS\ABRIS\ONEDRIVE\DESKTOP\REPOS\COMPUTER-GRAQPHICS-BEADANDO\02_INDICES\02_INDICES\DEBUG\MYAPP.OBJ
C:\USERS\ABRIS\ONEDRIVE\DESKTOP\REPOS\COMPUTER-GRAQPHICS-BEADANDO\02_INDICES\DEBUG\02_INDICES.EXE
C:\USERS\ABRIS\ONEDRIVE\DESKTOP\REPOS\COMPUTER-GRAQPHICS-BEADANDO\02_INDICES\DEBUG\02_INDICES.ILK
C:\USERS\ABRIS\ONEDRIVE\DESKTOP\REPOS\COMPUTER-GRAQPHICS-BEADANDO\02_INDICES\DEBUG\02_INDICES.PDB
